## Interface: 11302
## Author: cqwrteur
## Title: QUI Encounter Journal
## Version: @project-version@
## Dependencies: QUI
## LoadOnDemand: 1
## X-QUI-LOD: Blizzard_EncounterJournal

encounterjournal.lua
