## Interface: 11302
## Author: cqwrteur
## Title: QUI O
## Version: @project-version@
## SavedVariables: QUI_ODB
## LoadOnDemand: 1
## X-QUI-MESSAGE: QUI_ChatCommand

#@no-lib-strip@
Libs\AceGUI-3.0\AceGUI-3.0.xml
Libs\AceConfig-3.0\AceConfig-3.0.xml
Libs\AceDBOptions-3.0\AceDBOptions-3.0.xml
Libs\AceLocale-3.0\AceLocale-3.0.xml
Libs\AceTimer-3.0\AceTimer-3.0.xml
#@end-no-lib-strip@

Init.lua
module.xml
Core.lua